Cargando datos
…
*Y sep?

En este caso, estamos diciendo que la separación entre columnas es una coma. Al ser formato csv esto es evidente, pero usted podría tener un txt separado por tabulaciones por ejemplo, o por cualquier otro caracter.

2.2 Usando read_excel

require(readxl)

## Loading required package: readxl

read_excel("AMEBIASIS_LOJA.xlsx", 
                      sheet = 1, na = "NA")

## # A tibble: 3,019 × 9
##    Cantón Distrito `Dis Distribucion`   Sexo `Edad en años`
##     <chr>    <chr>              <chr>  <chr>          <dbl>
## 1    LOJA    11D01               LOJA Hombre              1
## 2    LOJA    11D01               LOJA Hombre             13
## 3    LOJA    11D01               LOJA Hombre             14
## 4    LOJA    11D01               LOJA Hombre              2
## 5    LOJA    11D01               LOJA Hombre              2
## 6    LOJA    11D01               LOJA Hombre             22
## 7    LOJA    11D01               LOJA Hombre              3
## 8    LOJA    11D01               LOJA Hombre             30
## 9    LOJA    11D01               LOJA Hombre             36
## 10   LOJA    11D01               LOJA Hombre              4
## # ... with 3,009 more rows, and 4 more variables: `N X` <chr>, `N
## #   Y` <chr>, Consultas <dbl>, Parroquia <chr>
…
